module gitlab.com/charlestenorios/next_ride_backend

go 1.18

require (
	github.com/cloudinary/cloudinary-go v1.7.0
	github.com/go-playground/validator/v10 v10.11.0
	github.com/joho/godotenv v1.4.0
	github.com/labstack/echo/v4 v4.7.2
	github.com/lib/pq v1.10.5
	github.com/satori/go.uuid v1.2.0
)

require (
	github.com/creasty/defaults v1.5.1 // indirect
	github.com/go-playground/locales v0.14.0 // indirect
	github.com/go-playground/universal-translator v0.18.0 // indirect
	github.com/google/uuid v1.2.0 // indirect
	github.com/gorilla/schema v1.2.0 // indirect
	github.com/labstack/gommon v0.3.1 // indirect
	github.com/leodido/go-urn v1.2.1 // indirect
	github.com/mattn/go-colorable v0.1.11 // indirect
	github.com/mattn/go-isatty v0.0.14 // indirect
	github.com/valyala/bytebufferpool v1.0.0 // indirect
	github.com/valyala/fasttemplate v1.2.1 // indirect
	golang.org/x/crypto v0.0.0-20211215153901-e495a2d5b3d3 // indirect
	golang.org/x/net v0.0.0-20211112202133-69e39bad7dc2 // indirect
	golang.org/x/sys v0.0.0-20211103235746-7861aae1554b // indirect
	golang.org/x/text v0.3.7 // indirect
)
